International Ramen Rankings
…
Combine Separate Mean Tables

The 3 meaned data sets were then combined in order to be used in the visualisation. This was achieved using the full join function.

MeanTibbleGrouped <- BowlDataMe %>% full_join(CupDataMe,by=c("Country","Stars", "Style"))

MeanTibbleGrouped <- MeanTibbleGrouped %>% full_join(PackDataMe,by=c("Country","Stars","Style"))
MeanTibbleGrouped

## # A tibble: 70 x 3
##    Country     Stars Style
##    <chr>       <dbl> <chr>
##  1 Canada       2.28 Bowl 
##  2 China        3.53 Bowl 
##  3 Hong Kong    3.74 Bowl 
##  4 Japan        4.14 Bowl 
##  5 Malaysia     4.28 Bowl 
##  6 Philippines  3.38 Bowl 
##  7 Singapore    4.10 Bowl 
##  8 South Korea  3.87 Bowl 
##  9 Taiwan       3.26 Bowl 
## 10 Thailand     3.14 Bowl 
## # ... with 60 more rows

Combine Separate Mean Tables

The 3 meaned data sets were then combined in order to be used in the visualisation. This was achieved using the full join function.

MeanTibbleGrouped <- BowlDataMe %>% full_join(CupDataMe,by=c("Country","Stars", "Style"))

MeanTibbleGrouped <- MeanTibbleGrouped %>% full_join(PackDataMe,by=c("Country","Stars","Style"))
MeanTibbleGrouped

## # A tibble: 70 x 3
##    Country     Stars Style
##    <chr>       <dbl> <chr>
##  1 Canada       2.28 Bowl 
##  2 China        3.53 Bowl 
##  3 Hong Kong    3.74 Bowl 
##  4 Japan        4.14 Bowl 
##  5 Malaysia     4.28 Bowl 
##  6 Philippines  3.38 Bowl 
##  7 Singapore    4.10 Bowl 
##  8 South Korea  3.87 Bowl 
##  9 Taiwan       3.26 Bowl 
## 10 Thailand     3.14 Bowl 
## # ... with 60 more rows
…
